…
## Value

A tibble containing the search results with relevant fields extracted
and provenance information.

## Examples

``` r
search_results <- search_finna("sibelius", sort = "main_date_str desc", limit = 100)
#> Warning: Default limit of 100 records is being used. Specify 'limit' argument for more records.
#> Total results found: 44920
#> Data fetching completed in 1.00 seconds.
print(search_results)
#> # A tibble: 100 × 10
#>    id                Title Author Year  Language Formats Subjects Library Series
#>    <chr>             <chr> <chr>  <chr> <chr>    <chr>   <chr>    <chr>   <chr> 
#>  1 eepos.3276069     Nyt … Koivi… 2026  fin      Kirja,… NA       Eepos-… NA    
#>  2 anders.1971521    Hels… Muhon… 2025  fin      Kirja,… Pokko, … Anders… NA    
#>  3 3amk.317967       Kerr… Helin… 2025  fin      Kirja,… matkail… 3AMK-k… NA    
#>  4 eepos.3204223     Finl… Parne… 2025  eng      Kirja,… Suomi    Eepos-… Insig…
#>  5 uniarts_print.99… Pers… Merta… 2025  eng      Opinnä… Hammer,… Taidey… EST-j…
#>  6 eepos.3213610     Symp… Sibel… 2025  zxx      Äänite… NA       Eepos-… NA    
#>  7 helmet.2607883    Jean… Griml… 2025  eng      Kirja,… Sibeliu… Helmet… NA    
#>  8 uniarts_print.99… Chil… Cappo… 2025  eng      Opinnä… lapset … Taidey… Studi…
#>  9 uniarts_print.99… Aika… Kasti… 2025  NA       Äänite… NA       Taidey… Sibel…
#> 10 uniarts_print.99… Nord… Jõged… 2025  est      Äänite… NA       Taidey… Sibel…
#> # ℹ 90 more rows
#> # ℹ 1 more variable: last_indexed <chr>
```
