Refining Finna Metadata • finna
…
Example Usage

library(finna)
library(ggplot2)

# Retrieve metadata from Finna API
sibelius_data <- search_finna("sibelius")

# Refine metadata and display missing data summary
refined_data <- refine_metadata(sibelius_data)
print(refined_data)

## # A tibble: 100 × 8
##    Title                   Author Year  Language Formats Subjects Library Series
##    <chr>                   <chr>  <chr> <chr>    <chr>   <chr>    <chr>   <chr> 
##  1 Sibelius favourites : … Sibel… 2001  NA       Äänite… NA       Lapin … NA    
##  2 Sibelius                Tawas… 1997  fin      Kirja,… Sibeliu… Anders… NA    
##  3 Sibelius                Lampi… 1984  fin      Kirja,… Sibeliu… Helka-… NA    
##  4 Sibelius                Tawas… 2003  fin      Kirja,… Sibeliu… Kansal… NA    
##  5 Sibelius                Ringb… 1948  fin      Kirja,… Sibeliu… Kirkes… NA    
##  6 Sibelius                Downe… 1945  fin      Kirja,… Sibeliu… OUTI-k… NA    
##  7 Sibelius                Tawas… 1968  swe      Kirja,… Sibeliu… Helle-… NA    
##  8 Sibelius                Ringb… NA    swe      Kirja,… Sibeliu… Taidey… NA    
##  9 Sibelius                Layto… 1978  eng      Kirja,… Sibeliu… Helka-… Maste…
## 10 Sibelius                Ottaw… 1968  eng      Kirja,… Sibeliu… Jyväsk… NA    
## # ℹ 90 more rows
…
