…
### Example Usage

``` r
library(finna)
library(ggplot2)

# Retrieve metadata from Finna API
sibelius_data <- search_finna("sibelius")

# Refine metadata and display missing data summary
refined_data <- refine_metadata(sibelius_data)
print(refined_data)
```

    ## # A tibble: 100 × 8
    ##    Title                   Author Year  Language Formats Subjects Library Series
    ##    <chr>                   <chr>  <chr> <chr>    <chr>   <chr>    <chr>   <chr> 
    ##  1 Sibelius favourites : … Sibel… 2001  NA       Äänite… NA       Lapin … NA    
    ##  2 SIBELIUS                TAWAS… 1997  fin      Kirja,… SIBELIUS Anders… NA    
    ##  3 Sibelius                Tawas… 1997  fin      Kirja,… Sibeliu… Kansal… NA    
    ##  4 Sibelius                Tawas… 2003  fin      Kirja,… Sibeliu… Blanka… NA    
    ##  5 Sibelius                Downe… 1945  fin      Kirja,… Sibeliu… Heili-… NA    
    ##  6 Sibelius                Tawas… 1968  swe      Kirja,… Sibeliu… Anders… NA    
    ##  7 SIBELIUS                RINGB… 1948  swe      Kirja,… SIBELIU… Helle-… NA    
    ##  8 SIBELIUS                TAWAS… 1968  swe      Kirja,… SIBELIU… Helle-… NA    
    ##  9 Sibelius                Gray,… 1934  eng      Kirja,… Sibeliu… PIKI-k… NA    
    ## 10 Sibelius                Gray,… 1945  eng      Kirja,… Sibeliu… Vanamo… NA    
    ## # ℹ 90 more rows
…
