…
## Fennica

To search Fennica data in Finna

**N.B** In the search_finna() default limit of 100 records is being
used. Specify ‘limit’ argument for more records.

``` r
library(finna)
fennica <- search_finna("*",filters=c('collection:"FEN"'))
print(fennica)
```

    ## # A tibble: 100 × 10
    ##    id                Title Author Year  Language Formats Subjects Library Series
    ##    <chr>             <chr> <chr>  <chr> <chr>    <chr>   <chr>    <chr>   <chr> 
    ##  1 3amk.39381        Tekn… Markk… 2003  fin      Kirja,… teknolo… 3AMK-k… Edusk…
    ##  2 3amk.55142        Työs… Sanas… 2006  fin      Kirja,… Diction… 3AMK-k… TSK, …
    ##  3 3amk.66893        Mahd… Holma… 2008  fin      Kirja,… Turun a… 3AMK-k… Turun…
    ##  4 ekk.993811934006… Tule… Lampi… 2009  fin      Kirja,… kansain… Edusku… Opetu…
    ##  5 3amk.70767        Kaup… Laine… 2009  fin      Kirja,… kaupunk… 3AMK-k… Tutki…
    ##  6 diana.96117       Suom… Helak… 2011  fin      Kirja,… terveys… Diakon… Rapor…
    ##  7 anders.1286609    Sosi… Niira… 2012  fin      Kirja,… sosiaal… Anders… Acta …
    ##  8 3amk.80687        Kais… Lantt… 2012  fin      Kirja,… Kaisa-t… 3AMK-k… NA    
    ##  9 3amk.86024        Hyvi… Taave… 2015  fin      Kirja,… seksuaa… 3AMK-k… Julka…
    ## 10 3amk.86552        Koko… Sanas… 2014  fin      Kirja,… sanasto… 3AMK-k… TSK, …
    ## # ℹ 90 more rows
    ## # ℹ 1 more variable: last_indexed <chr>
…
## 19th century fennica data

search the whole data and it total search of counts in the the interval
between some years for example between the years 1809-1917 as follows:

``` r
library(finna)
fennica <- search_finna("*",filters = c('collection:"FEN"', 'search_daterange_mv:"[1808 TO 1918]"'))
print(fennica)
```

    ## # A tibble: 100 × 10
    ##    id                Title Author Year  Language Formats Subjects Library Series
    ##    <chr>             <chr> <chr>  <chr> <chr>    <chr>   <chr>    <chr>   <chr> 
    ##  1 aalto.9926263844… Suom… Tie- … 1911  fin      Kirja,… NA       Aalto-… NA    
    ##  2 helka.9915108535… Tiet… Schvi… 1893  fin      Kirja,… arkeolo… Helka-… Suome…
    ##  3 jykdok.724878     Förh… NA     1892  swe      Kirja,… naisasi… Jyväsk… NA    
    ##  4 helmet.1230554    Till… Ekman… 1869  swe      Kirja,… NA       Helmet… NA    
    ##  5 helka.9912014063… Laus… Jutei… 1844  fin      Kirja,… NA       Helka-… NA    
    ##  6 helka.9920831553… Halt… NA     1881  fin      Kirja,… NA       Helka-… NA    
    ##  7 helka.9914651535… Kesä… L. W.… 1898  fin      Kirja,… arkeolo… Helka-… Suome…
    ##  8 jykdok.699840     Luet… Lindb… 1901  fin      Kirja,… NA       Jyväsk… NA    
    ##  9 jykdok.749728     Voly… Neovi… 1893  swe      Kirja,… NA       Jyväsk… NA    
    ## 10 jykdok.750206     Kert… Walli… 1894  fin      Kirja,… NA       Jyväsk… Suome…
    ## # ℹ 90 more rows
    ## # ℹ 1 more variable: last_indexed <chr>
…
