…
You can also fetch records missing the `main_date_str` field:

``` r
# Fetch undated records
undated_records <- search_finna(
  query = "*",
  filters = c('collection:"VIO"', '-main_date_str:*'),
  limit = Inf
)

# View undated records
print(undated_records)
```

    ## # A tibble: 2,482 × 10
    ##    id             Title    Author Year  Language Formats Subjects Library Series
    ##    <chr>          <chr>    <chr>  <chr> <chr>    <chr>   <chr>    <chr>   <chr> 
    ##  1 fikka.2834441  Graduale NA     NA    lat      Kirja,… arkisto… Kansal… NA    
    ##  2 fikka.2834442  Antipho… NA     NA    lat      Kirja,… arkisto… Kansal… NA    
    ##  3 fikka.1030650  [Antiph… NA     NA    lat      Teksti… arkisto… Kansal… NA    
    ##  4 fikka.1041233  [Antiph… NA     NA    lat      Teksti… arkisto… Kansal… NA    
    ##  5 fikka.1041339  [Antiph… NA     NA    lat      Teksti… arkisto… Kansal… NA    
    ##  6 fikka.5207343  [Gradua… NA     NA    fin      Nuotti  arkisto… Kansal… NA    
    ##  7 jykdok.1827911 Sotiemm… NA     NA    fin      Äänite… NA       Jyväsk… NA    
    ##  8 fikka.4941590  Demo     NA     NA    zxx      Äänite… NA       Kansal… NA    
    ##  9 fikka.4941603  Boogie … NA     NA    zxx      Äänite… NA       Kansal… NA    
    ## 10 fikka.4941825  Close-up NA     NA    zxx      Äänite… NA       Kansal… NA    
    ## # ℹ 2,472 more rows
    ## # ℹ 1 more variable: last_indexed <chr>
…
